\relax 
\providecommand\zref@newlabel[2]{}
\providecommand\hyper@newdestlabel[2]{}
\providecommand\HyperFirstAtBeginDocument{\AtBeginDocument}
\HyperFirstAtBeginDocument{\ifx\hyper@anchor\@undefined
\global\let\oldcontentsline\contentsline
\gdef\contentsline#1#2#3#4{\oldcontentsline{#1}{#2}{#3}}
\global\let\oldnewlabel\newlabel
\gdef\newlabel#1#2{\newlabelxx{#1}#2}
\gdef\newlabelxx#1#2#3#4#5#6{\oldnewlabel{#1}{{#2}{#3}}}
\AtEndDocument{\ifx\hyper@anchor\@undefined
\let\contentsline\oldcontentsline
\let\newlabel\oldnewlabel
\fi}
\fi}
\global\let\hyper@last\relax 
\gdef\HyperFirstAtBeginDocument#1{#1}
\providecommand\HyField@AuxAddToFields[1]{}
\providecommand\HyField@AuxAddToCoFields[2]{}
\citation{HI12ONTH}
\citation{ME13LASE,WA13SCAL}
\citation{KN04STAT}
\citation{NG10RECU}
\citation{park2012empirical}
\citation{GU15INDU}
\citation{GU11AUTO}
\citation{PO15FLAS}
\citation{LE14FLAS}
\@writefile{toc}{\contentsline {title}{Automating repetitive code changes using examples}{1}{chapter.1}}
\@writefile{toc}{\authcount {1}}
\@writefile{toc}{\contentsline {author}{\textbf  {Anonymized}}{1}{chapter.1}}
\@writefile{toc}{\contentsline {section}{\numberline {1}Introduction}{1}{section.1.1}}
\newlabel{s:introduction}{{1}{1}{Introduction}{section.1.1}{}}
\citation{roslyn}
\citation{entity}
\citation{nuget}
\@writefile{toc}{\contentsline {section}{\numberline {2}Problem definition}{3}{section.1.2}}
\newlabel{s:problem}{{2}{3}{Problem definition}{section.1.2}{}}
\@writefile{lof}{\contentsline {figure}{\numberline {1}{\ignorespaces Repetitive change applied to Roslyn's source code to replace an equals expression to a method invocation.\relax }}{3}{figure.caption.2}}
\providecommand*\caption@xref[2]{\@setref\relax\@undefined{#1}}
\newlabel{fig:example1}{{1}{3}{Repetitive change applied to Roslyn's source code to replace an equals expression to a method invocation.\relax }{figure.caption.2}{}}
\citation{LE14FLAS}
\citation{GU11AUTO}
\@writefile{toc}{\contentsline {section}{\numberline {3}Background}{4}{section.1.3}}
\newlabel{s:background}{{3}{4}{Background}{section.1.3}{}}
\@writefile{toc}{\contentsline {subsection}{\numberline {3.1}FlashExtract}{5}{subsection.1.3.1}}
\newlabel{s:fe}{{3.1}{5}{FlashExtract}{subsection.1.3.1}{}}
\@writefile{lof}{\contentsline {figure}{\numberline {2}{\ignorespaces Extracting all first names from a text file in FlashExtract. User gives two examples in (a); FlashExtract learns a program from the examples, executes the program, and highlights all remaining names in (b).\relax }}{5}{figure.caption.3}}
\newlabel{fig:flashextract-example}{{2}{5}{Extracting all first names from a text file in FlashExtract. User gives two examples in (a); FlashExtract learns a program from the examples, executes the program, and highlights all remaining names in (b).\relax }{figure.caption.3}{}}
\zref@newlabel{mdf@pagelabel-1}{\default{3.1}\page{5}\abspage{5}\mdf@pagevalue{5}}
\newlabel{p:filter-example}{{1}{5}{FlashExtract}{programcounter.1}{}}
\pgfsyspdfmark {pgfid1}{8865054}{20426960}
\citation{GU11AUTO}
\@writefile{lof}{\contentsline {figure}{\numberline {3}{\ignorespaces Normalizing names by examples using FlashFill.\relax }}{6}{figure.caption.4}}
\newlabel{fig:flashfill-example}{{3}{6}{Normalizing names by examples using FlashFill.\relax }{figure.caption.4}{}}
\zref@newlabel{mdf@pagelabel-2}{\default{3.1}\page{6}\abspage{6}\mdf@pagevalue{6}}
\newlabel{p:map}{{2}{6}{FlashExtract}{programcounter.2}{}}
\pgfsyspdfmark {pgfid2}{8865054}{37022894}
\@writefile{toc}{\contentsline {subsection}{\numberline {3.2}FlashFill}{6}{subsection.1.3.2}}
\newlabel{s:ff}{{3.2}{6}{FlashFill}{subsection.1.3.2}{}}
\zref@newlabel{mdf@pagelabel-3}{\default{3.2}\page{6}\abspage{6}\mdf@pagevalue{6}}
\newlabel{p:concatenate-example}{{3}{6}{FlashFill}{programcounter.3}{}}
\pgfsyspdfmark {pgfid3}{8865054}{13280122}
\citation{LE14FLAS}
\citation{GU11AUTO}
\@writefile{lof}{\contentsline {figure}{\numberline {4}{\ignorespaces The process of performing repetitive code changes using examples.\relax }}{7}{figure.caption.5}}
\newlabel{fig:bigpicture}{{4}{7}{The process of performing repetitive code changes using examples.\relax }{figure.caption.5}{}}
\@writefile{toc}{\contentsline {section}{\numberline {4}Approach}{7}{section.1.4}}
\newlabel{s:technique}{{4}{7}{Approach}{section.1.4}{}}
\@writefile{toc}{\contentsline {subsection}{\numberline {4.1}Locating source code fragments using examples}{7}{subsection.1.4.1}}
\newlabel{s:feprogram}{{4.1}{7}{Locating source code fragments using examples}{subsection.1.4.1}{}}
\@writefile{toc}{\contentsline {subsubsection}{\numberline {4.1.1}Domain-Specific Language}{8}{subsubsection.1.4.1.1}}
\zref@newlabel{mdf@pagelabel-4}{\default{\caption@xref {??}{ on input line 103}}\page{8}\abspage{8}\mdf@pagevalue{8}}
\pgfsyspdfmark {pgfid4}{8865054}{32490727}
\@writefile{lof}{\contentsline {figure}{\numberline {5}{\ignorespaces The DSL to locate code fragments that will be changed.\relax }}{8}{figure.caption.6}}
\newlabel{fig:locdsl}{{5}{8}{The DSL to locate code fragments that will be changed.\relax }{figure.caption.6}{}}
\zref@newlabel{mdf@pagelabel-5}{\default{4.1.1}\page{8}\abspage{8}\mdf@pagevalue{8}}
\newlabel{p:flashextract-example1}{{4}{8}{Domain-Specific Language}{programcounter.4}{}}
\pgfsyspdfmark {pgfid5}{8865054}{11707258}
\citation{LE14FLAS}
\@writefile{lof}{\contentsline {figure}{\numberline {6}{\ignorespaces Repetitive change applied to Roslyn to update references after changing the method signature.\relax }}{9}{figure.caption.7}}
\newlabel{fig:example2}{{6}{9}{Repetitive change applied to Roslyn to update references after changing the method signature.\relax }{figure.caption.7}{}}
\zref@newlabel{mdf@pagelabel-6}{\default{4.1.1}\page{9}\abspage{9}\mdf@pagevalue{9}}
\newlabel{p:flashextract-merge}{{5}{9}{Domain-Specific Language}{programcounter.5}{}}
\pgfsyspdfmark {pgfid6}{8865054}{15014665}
\@writefile{toc}{\contentsline {subsubsection}{\numberline {4.1.2}Program Synthesis}{9}{subsubsection.1.4.1.2}}
\@writefile{toc}{\contentsline {subsection}{\numberline {4.2}Code transformation using examples}{10}{subsection.1.4.2}}
\newlabel{s:ffprogram}{{4.2}{10}{Code transformation using examples}{subsection.1.4.2}{}}
\@writefile{toc}{\contentsline {subsubsection}{\numberline {4.2.1}Domain-Specific Language}{10}{subsubsection.1.4.2.1}}
\zref@newlabel{mdf@pagelabel-7}{\default{\caption@xref {??}{ on input line 236}}\page{10}\abspage{10}\mdf@pagevalue{10}}
\pgfsyspdfmark {pgfid7}{8865054}{22393614}
\@writefile{lof}{\contentsline {figure}{\numberline {7}{\ignorespaces The DSL to transform the code fragments using examples.\relax }}{10}{figure.caption.8}}
\newlabel{fig:editdsl}{{7}{10}{The DSL to transform the code fragments using examples.\relax }{figure.caption.8}{}}
\zref@newlabel{mdf@pagelabel-8}{\default{4.2.1}\page{11}\abspage{11}\mdf@pagevalue{11}}
\newlabel{p:flashfill-example1}{{6}{11}{Domain-Specific Language}{programcounter.6}{}}
\pgfsyspdfmark {pgfid8}{8865054}{43733579}
\zref@newlabel{mdf@pagelabel-9}{\default{4.2.1}\page{11}\abspage{11}\mdf@pagevalue{11}}
\newlabel{p:flashfill-example2}{{7}{11}{Domain-Specific Language}{programcounter.7}{}}
\pgfsyspdfmark {pgfid9}{8865054}{30166909}
\@writefile{toc}{\contentsline {subsubsection}{\numberline {4.2.2}Program Synthesis}{11}{subsubsection.1.4.2.2}}
\@writefile{toc}{\contentsline {section}{\numberline {5}Evaluation}{11}{section.1.5}}
\newlabel{s:evaluation}{{5}{11}{Evaluation}{section.1.5}{}}
\@writefile{toc}{\contentsline {subsection}{\numberline {5.1}Experimental setup}{12}{subsection.1.5.1}}
\@writefile{toc}{\contentsline {subsection}{\numberline {5.2}Q{}1: Can our technique perform real-world repetitive changes?}{12}{subsection.1.5.2}}
\@writefile{lof}{\contentsline {figure}{\numberline {8}{\ignorespaces Number of locations changed by the developers and by our technique.\relax }}{12}{figure.caption.9}}
\newlabel{fig:location-chart}{{8}{12}{Number of locations changed by the developers and by our technique.\relax }{figure.caption.9}{}}
\@writefile{toc}{\contentsline {subsection}{\numberline {5.3}Q{}2: How many examples are required to apply the desired repetitive change?}{13}{subsection.1.5.3}}
\@writefile{lof}{\contentsline {figure}{\numberline {9}{\ignorespaces Number of examples required to locate and edit.\relax }}{13}{figure.caption.10}}
\newlabel{fig:examples}{{9}{13}{Number of examples required to locate and edit.\relax }{figure.caption.10}{}}
\citation{ME11SYST}
\citation{ME13LASE}
\citation{JA14COOK}
\citation{WA13SCAL}
\citation{NG10AGRA}
\@writefile{toc}{\contentsline {subsection}{\numberline {5.4}Q{}3: How efficient is our technique in synthesizing and applying the transformation?}{14}{subsection.1.5.4}}
\@writefile{toc}{\contentsline {subsection}{\numberline {5.5}Threats to validity}{14}{subsection.1.5.5}}
\@writefile{toc}{\contentsline {section}{\numberline {6}Related work}{14}{section.1.6}}
\citation{RA13REFA}
\citation{FO12WITC}
\bibstyle{splncs03}
\bibdata{ref}
\@writefile{toc}{\contentsline {section}{\numberline {7}Conclusion}{15}{section.1.7}}
\newlabel{s:conclusion}{{7}{15}{Conclusion}{section.1.7}{}}
\bibcite{entity}{{1}{}{{}}{{}}}
\bibcite{FO12WITC}{{2}{}{{}}{{}}}
\bibcite{GU11AUTO}{{3}{}{{}}{{}}}
\bibcite{GU15INDU}{{4}{}{{}}{{}}}
\bibcite{HI12ONTH}{{5}{}{{}}{{}}}
\bibcite{JA14COOK}{{6}{}{{}}{{}}}
\bibcite{KN04STAT}{{7}{}{{}}{{}}}
\bibcite{LE14FLAS}{{8}{}{{}}{{}}}
\bibcite{ME11SYST}{{9}{}{{}}{{}}}
\bibcite{ME13LASE}{{10}{}{{}}{{}}}
\bibcite{NG10AGRA}{{11}{}{{}}{{}}}
\bibcite{NG10RECU}{{12}{}{{}}{{}}}
\bibcite{nuget}{{13}{}{{}}{{}}}
\bibcite{park2012empirical}{{14}{}{{}}{{}}}
\bibcite{PO15FLAS}{{15}{}{{}}{{}}}
\bibcite{RA13REFA}{{16}{}{{}}{{}}}
\bibcite{roslyn}{{17}{}{{}}{{}}}
\bibcite{WA13SCAL}{{18}{}{{}}{{}}}
\providecommand\NAT@force@numbers{}\NAT@force@numbers
